<svg width="24" height="24" fill="none" xmlns="http://www.w3.org/2000/svg">
    <path d="M14.412 14.412 20 20" stroke="#002C5F" stroke-width="1.5" stroke-linecap="square"/>
    <path clip-rule="evenodd" d="M10 16a6 6 0 1 0 0-12 6 6 0 0 0 0 12z" stroke="#002C5F" stroke-width="1.5"/>
</svg>
